{
    "begin": {
        "text": "'Welcome {{playerName}}.  We have been expecting you.' <br> You find yourself in a very large noisy room surrounded by talking dolphins.",
        "inspect": "It is very loud in here! But the dolphins seem happy.",
        "items": [
            {
                "id": "fishBucket",
                "dir": "front"
            },
            {
                "id": "door",
                "dir": "right",
                "inspect": "The door looks like it is open, but it is very dark on the other side.",
                "choices":[
                    {
                        "text": "Run Through The Door",
                        "resultState": "mainHallway"
                    }
                ]
            }
        ],
        "choices": [
            {
                "text": "Talk To Dolphins",
                "resultState": "dolphinTalk"
            }
        ]

    },

    "mainHallway": {
        "text": "You are in a long and dark hallway.  It smells like cheese in here but you can't see much.  You hear a chirping sound.",
        "choices": [
            {
                "text": "Go back To The Dolphins",
                "resultState": "begin"
            }
        ]

    },

    "death": {
        "text": "Bad Choice. You Are Now Dead."
    }

}
